Name               Stmts   Miss Branch BrPart  Cover   Missing
--------------------------------------------------------------
Diplomacy.py          78     73     42      0     4%   39-69, 79-80, 97-178, 192-193, 205-212
TestDiplomacy.py      85     65      0      0    24%   25-29, 32-37, 40-45, 52-56, 64-66, 69-71, 74-76, 79-81, 89-94, 101-103, 106-108, 111-113, 121-124, 129-132, 136-139, 143-146
--------------------------------------------------------------
TOTAL                163    138     42      0    12%

